[
    {
        "name": "Devon",
        "source_floor": 10,
        "destination_floor": 9
    },
    {
        "name": "Noelle",
        "source_floor": 5,
        "destination_floor": 8
    },
    {
        "name": "Viki",
        "source_floor": 0,
        "destination_floor": 6
    },
    {
        "name": "Shaylah",
        "source_floor": 6,
        "destination_floor": 1
    },
    {
        "name": "Matteo",
        "source_floor": 5,
        "destination_floor": 4
    },
    {
        "name": "Samona",
        "source_floor": 10,
        "destination_floor": 3
    },
    {
        "name": "Charlton",
        "source_floor": 4,
        "destination_floor": 1
    },
    {
        "name": "Cyrena",
        "source_floor": 1,
        "destination_floor": 5
    },
    {
        "name": "Donita",
        "source_floor": 4,
        "destination_floor": 1
    },
    {
        "name": "Cicely",
        "source_floor": 1,
        "destination_floor": 2
    },
    {
        "name": "Liborio",
        "source_floor": 2,
        "destination_floor": 9
    },
    {
        "name": "Maybelline",
        "source_floor": 8,
        "destination_floor": 2
    },
    {
        "name": "Jethro",
        "source_floor": 10,
        "destination_floor": 2
    },
    {
        "name": "Turan",
        "source_floor": 10,
        "destination_floor": 0
    },
    {
        "name": "Aruna",
        "source_floor": 7,
        "destination_floor": 3
    },
    {
        "name": "Stormie",
        "source_floor": 7,
        "destination_floor": 9
    },
    {
        "name": "Arnoldo",
        "source_floor": 8,
        "destination_floor": 3
    },
    {
        "name": "Laurelin",
        "source_floor": 7,
        "destination_floor": 2
    },
    {
        "name": "Crosby",
        "source_floor": 8,
        "destination_floor": 4
    },
    {
        "name": "Lucie",
        "source_floor": 9,
        "destination_floor": 1
    },
    {
        "name": "Dacey",
        "source_floor": 7,
        "destination_floor": 5
    },
    {
        "name": "Bernell",
        "source_floor": 3,
        "destination_floor": 9
    },
    {
        "name": "Joas",
        "source_floor": 10,
        "destination_floor": 6
    },
    {
        "name": "Terrica",
        "source_floor": 9,
        "destination_floor": 3
    },
    {
        "name": "Stacy",
        "source_floor": 10,
        "destination_floor": 1
    },
    {
        "name": "Jemell",
        "source_floor": 0,
        "destination_floor": 8
    },
    {
        "name": "Shanique",
        "source_floor": 5,
        "destination_floor": 1
    },
    {
        "name": "Davida",
        "source_floor": 1,
        "destination_floor": 10
    },
    {
        "name": "Jenean",
        "source_floor": 4,
        "destination_floor": 0
    },
    {
        "name": "Shelbey",
        "source_floor": 2,
        "destination_floor": 5
    },
    {
        "name": "Britainy",
        "source_floor": 3,
        "destination_floor": 0
    },
    {
        "name": "Chantz",
        "source_floor": 2,
        "destination_floor": 9
    },
    {
        "name": "Angus",
        "source_floor": 7,
        "destination_floor": 4
    },
    {
        "name": "Alegra",
        "source_floor": 5,
        "destination_floor": 2
    },
    {
        "name": "Shamella",
        "source_floor": 6,
        "destination_floor": 1
    },
    {
        "name": "Joshalyn",
        "source_floor": 9,
        "destination_floor": 7
    },
    {
        "name": "Temisha",
        "source_floor": 1,
        "destination_floor": 9
    },
    {
        "name": "Kathrina",
        "source_floor": 10,
        "destination_floor": 8
    },
    {
        "name": "Adriane",
        "source_floor": 10,
        "destination_floor": 3
    },
    {
        "name": "Maylynn",
        "source_floor": 3,
        "destination_floor": 10
    }
]